…
# Created a table for the median price of flats with 3 or fewer bedrooms
median_price_beds <- rent %>% 
  filter(beds <= 3 & city == "san francisco") %>% 
  group_by(year, beds) %>% 
  summarise(median_price = median(price))
median_price_beds

## # A tibble: 75 × 3
## # Groups:   year [19]
##     year  beds median_price
##    <dbl> <dbl>        <dbl>
##  1  2000     0        1100 
##  2  2000     1        2175 
##  3  2000     2        2098.
##  4  2001     0        1250 
##  5  2001     1        1725 
##  6  2001     2        2250 
##  7  2001     3        2995 
##  8  2002     0        1125 
##  9  2002     1        1532.
## 10  2002     2        1972.
## # … with 65 more rows
…
# Alternatively, We see that there are no missing values for any variables in the dataset.

# Identified all duplicates (please read the disclaimer in our comment below)
movies %>%
  group_by(title) %>% 
  filter(n()>1) %>%
  summarise(count(title))

## # A tibble: 53 × 2
##    title                       `count(title)`
##    <chr>                                <int>
##  1 A Nightmare on Elm Street                2
##  2 Across the Universe                      2
##  3 Alice in Wonderland                      2
##  4 Aloha                                    2
##  5 Around the World in 80 Days              2
##  6 Brothers                                 2
##  7 Carrie                                   2
##  8 Chasing Liberty                          2
##  9 Cinderella                               2
## 10 Clash of the Titans                      2
## # … with 43 more rows
…
